The Layout of Informal Settlements in Durban, KwaZulu-Natal
…
The municipaity of eThekwini recognised this challenge and was pressured by the need to address large sanitation backlogs in areas with high population density, informal housing, and difficult terrain. informal settlements were recognised and given communal ablution blocks (CABs) facilities, and on-site sanitation technologies such as ventilated improved pit (VIP) latrines (Roma et al., 2013; Buckley et al., 2008). The CABs and VIPs were built temporarilly whilst improving sanitation structures in Durban that will abe able to accomoadate the now desely populated areas as a results of city migration (Roma et al., 2013; Buckley et al., 2008).

The National Upgrading Support Programme (NUSP) in eThekwini Municipality has increasingly aligned its mission in increasing sanitation for the informal settlement and previously disadvantahed communities. This is a tailored approach that will consider site specific environmental risks, climate resilience, and long-term service sustainability (Roma & Buckley, 2016). In line with SDG 6.2, municipal plans emphasise not only increased coverage, but also improving the quality of service delivery with more durable and safely managed sanitation systems.

The eThekwini municipality published its current status of sanitation provision within informal settlements in eThekwini in 2022. This is to be used through city planning in noting the types, distribution, and scale of sanitation services, and how future projects can be implemented in order to meet the objectives of SDG 6 in an urban informal settlement context.

Methods

Data for this study was obtained from the Informal Settlement Programme dataset accessed via the eThekwini Open GIS DATA. The eThekwini Open GIS Data platform is GIS database that focuses on the services provided at a municipal level that is open to the public. The dataset was provided in Microsoft Excel format. This data below contains asettlement-level information on the spatial distribution of informal settlements, estimated household counts, and access to basic services, including sanitation, within eThekwini Municipality. This data is to be used by the different municipality departments for future planning.

read_csv (here::here("Data /raw/Durban_Informal_Settlement_Programme.csv") ,
           show_col_types = FALSE) 

# A tibble: 566 × 18
   OBJECTID NAME_OF_SE  ALT_NAME STREETNAME WARD_S PLANNING_U LATITUDE LONGITUDE
      <dbl> <chr>       <chr>    <chr>      <chr>  <chr>         <dbl>     <dbl>
 1        1 Amatikwe    <NA>     MR93 North 56/108 Amatikwe   -2.97e14   3.09e14
 2        2 Congo Phas… Congo P… MR93 /MR9… 55/57  Inanda Co… -2.97e14   3.10e14
 3        3 Africa Ina… Africa   Curnick N… 55     Ohlange-A… -2.97e13   3.09e14
 4        4 Namibia     <NA>     Curnick N… 108/44 Inanda Na… -2.97e13   3.09e14
 5        5 Mshayazafe  <NA>     Sidudla R… 55     Mshayazaf… -2.97e14   3.09e14
 6        6 Ntuzuma - … <NA>     Ithendele… 44/43  Emachoben… -2.97e14   3.09e14
 7        7 Ntuzuma - … <NA>     121829 St… 44/43  Emachoben… -2.97e14   3.09e14
 8        8 Smithfield  <NA>     Smithfiel… 34     Sea Cow L… -2.98e14   3.10e14
 9        9 Johanna Ro… <NA>     Johanna R… 34     Sea Cow L… -2.98e14   3.10e14
10       10 Triumph/ M… <NA>     Triumph R… 34     Sea Cow L… -2.98e14   3.10e14
# ℹ 556 more rows
# ℹ 10 more variables: REGION <chr>, WATER_SUPP <chr>, SANITATION <chr>,
#   REFUSE <chr>, ELECTRIC_2 <chr>, UNIREFCODE <chr>, EST_HHC <dbl>,
#   NUSP_CAT <chr>, Shape__Area <dbl>, Shape__Length <dbl>
…
sansubset2<-sansubset|>filter(SANITATION!="TBC")
sansubset3<-sansubset2|>filter(WATER_SUPP!="TBC")
sansubset4<-sansubset3|>filter(ELECTRIC_2!="TBC")

sansubset5<-sansubset4 %>% count(SANITATION)
sansubset5|>count(SANITATION)

# A tibble: 23 × 2
   SANITATION                            n
   <chr>                             <int>
 1 Ablutiion Facility                    1
 2 Ablution Facility                     1
 3 Ablution Facility & Pit Privies       1
 4 Ablution Facility & VIP               1
 5 Ablution Facility & VIP toilets       1
 6 Ablution Facility & VIPs              1
 7 Ablution Facility & flush toilets     1
 8 Ablution Facilty                      1
 9 Ablution facilities & Pit Privies     1
10 Ablution facility                     1
# ℹ 13 more rows
…
